ABC;Aklrşak;Testing UTF8
ABD;Müller;Testing Umlaut
ABF;Müllör;Testing Umlaut
ABG;Mößlär;Testing Umlaut
ABH;Møller;Testing Denmark  
ACO;Анастасия;Testing Russian
ADA;Adams;Bi/Ch
ALE;Alexander;Ma/Sn
ALL;Allen;Ch/Ma
AND;Anderson;If/Ge
ARC;Archer;En/Sp
ARI;Arias;Bi/Ch
AYE;Ayers;En/Sp
BAI;Bailey;Bi/Ch
BAR;Baird;Ma/Sn
BAE;Barrera;Ch/Ma
BEL;Bell;If/Ge
BEN;Bender;En/Sp
BES;Benson;Bi/Ch
BET;Bentley;En/Sp
BIR;Bird;Bi/Ch
BIS;Bishop;Ma/Sn
BLA;Blanchard;Ch/Ma
BON;Bond;If/Ge
BOW;Bowen;En/Sp
BOY;Boyer;Bi/Ch
BRA;Bradford;En/Sp
BRD;Brady;Bi/Ch
BRU;Bruce;Ma/Sn
BRY;Bryan;Ch/Ma, Principle
BUC;Buchanan;If/Ge
BUT;Butler;En/Sp
CAM;Cameron;Bi/Ch
CAN;Cannon;En/Sp
CAR;Carney;Bi/Ch
CHE;Cherry;Ma/Sn
CLA;Clark;Ch/Ma
COO;Cook;En/Sp
COP;Comway;If/Ge
COW;Cowan;En/Sp
CUE;Cuevas;En/Sp
CUM;Cummings;Bi/Ch
DEL;Delacruz;Ma/Sn
DEN;Deleon;Ch/Ma
DIC;Dickerson;If/Ge
DIL;Dillon;En/Sp
DIX;Dixon;Bi/Ch
DON;Donovan;En/Sp
DOR;Dorsey;Bi/Ch
DRA;Drake;Ma/Sn
DUD;Dudley;Ch/Ma
DUF;Duffy;If/Ge
FIT;Fitzpatrick;En/Sp
FLE;Fletcher;Bi/Ch
FOR;Forbes;En/Sp
GAI;Gaines;Bi/Ch
GAL;Gallagher;Ma/Sn
GAO;Galloway;Ch/Ma
GAV;Galvan;If/Ge
GAR;Garza;En/Sp
GAT;Gates;Bi/Ch
GOO;Good;En/Sp
GRE;Greene;Bi/Ch
GRO;Gross;Ma/Sn
HAM;Hammond;Ch/Ma
HAR;Harmon;If/Ge
HAT;Hatfield;En/Sp
HAW;Hawkins;Bi/Ch
HEB;Hebert;En/Sp
HER;Herrera;Bi/Ch
HOL;Holder;Ma/Sn
HOM;Holmes;Ch/Ma
HOP;Hopkins;If/Ge
HOW;Howard;En/Sp
ING;Ingram;Bi/Ch
JEF;Jefferson;En/Sp
JOH;Johns;En/Sp
JOS;Johnston;Bi/Ch
KAI;Kaiser;Ma/Sn
KEL;Keller;Ch/Ma
KEN;Kent;If/Ge
KIR;Kirk;En/Sp
KOC;Koch;Bi/Ch
KRA;Kramer;Ma/Sn
KRU;Krause;Ch/Ma
LAM;Lamb;If/Ge
LAN;Lane;En/Sp
LAG;Lang;Bi/Ch
LEE;Lee;En/Sp
LIT;Little;Bi/Ch
LYN;Lynch;Ma/Sn
MAC;Macias;Ch/Ma
MAL;Maldonado;If/Ge
MAS;Mason;En/Sp
MAY;Mayo;Bi/Ch
MAS;Mays;En/Sp
MCK;Mckenzie;Bi/Ch
MIT;Mitchell;Ma/Sn
MOO;Mooney;Ch/Ma
MOR;Morales;If/Ge
MUR;Murphy;En/Sp
NEL;Nelson;Bi/Ch
NIX;Nixon;En/Sp
NUN;Nunez;Bi/Ch
OBR;Obrien;Ma/Sn
OCH;Ochoa;Ch/Ma
ODO;Odom;If/Ge
OLI;Oliver;En/Sp
ONE;Oneal;Bi/Ch
ORR;Orr;En/Sp
ORT;Ortiz;Bi/Ch
PAL;Palmer;Ma/Sn
PEC;Peck;Ch/Ma
PER;Perez;If/Ge
PET;Petersen;En/Sp
PHI;Phillips;Bi/Ch
PIN;Pineda;En/Sp
POW;Powell;En/Sp
PRE;Preston;Bi/Ch
RAN;Randall;Ma/Sn
RIC;Rich;Ch/Ma
RIA;Richards;If/Ge
RID;Richardson;En/Sp
RIV;Rivas;En/Sp
ROA;Rosales;Bi/Ch
ROS;Ross;Ma/Sn
ROW;Rowland;Ch/Ma
SAL;Salinas;If/Ge
SCH;Schroeder;En/Sp
SCU;Schultz;Bi/Ch
SHE;Sheppard;En/Sp
SIM;Simon;Bi/Ch
SOL;Solis;Ma/Sn
SOS;Sosa;Ch/Ma
SPE;Spencer;If/Ge
STA;Stafford;En/Sp
STE;Stephens;Bi/Ch
STO;Stout;En/Sp
SWA;Swanson;Bi/Ch
TAT;Tate;Ma/Sn
TRA;Travis;Ch/Ma
VAL;Valenzuela;If/Ge
WAL;Walker;En/Sp
WAS;Washington;Bi/Ch
WEB;Weber;En/Sp
WES;West;Bi/Ch
WHI;Whitaker;Ma/Sn
WIK;Wilkerson;Ch/Ma
WIL;Wilkinson;If/Ge
WOO;Wood;En/Sp
YAT;Yates;Bi/Ch
YU;Yu;En/Sp
ZAM;Zamora;Bi/Ch
ZAV;Zavala;Ma/Sn